%YAML 1.1
%TAG !u! tag:unity3d.com,2011:
--- !u!1 &1645339236151511437
GameObject:
  m_ObjectHideFlags: 0
  m_CorrespondingSourceObject: {fileID: 0}
  m_PrefabInstance: {fileID: 0}
  m_PrefabAsset: {fileID: 0}
  serializedVersion: 6
  m_Component:
  - component: {fileID: 3363823998034535575}
  - component: {fileID: 2664471940165738671}
  - component: {fileID: 596252665213641184}
  - component: {fileID: 2785091855811504234}
  m_Layer: 9
  m_Name: Image (2)
  m_TagString: Untagged
  m_Icon: {fileID: 0}
  m_NavMeshLayer: 0
  m_StaticEditorFlags: 0
  m_IsActive: 1
--- !u!224 &3363823998034535575
RectTransform:
  m_ObjectHideFlags: 0
  m_CorrespondingSourceObject: {fileID: 0}
  m_PrefabInstance: {fileID: 0}
  m_PrefabAsset: {fileID: 0}
  m_GameObject: {fileID: 1645339236151511437}
  m_LocalRotation: {x: 0.7071068, y: 0, z: 0, w: 0.7071068}
  m_LocalPosition: {x: 0, y: 0, z: 0}
  m_LocalScale: {x: 1, y: 1, z: 1}
  m_Children: []
  m_Father: {fileID: 3385171791806616486}
  m_RootOrder: 2
  m_LocalEulerAnglesHint: {x: 90, y: 0, z: 0}
  m_AnchorMin: {x: 0.5, y: 0.5}
  m_AnchorMax: {x: 0.5, y: 0.5}
  m_AnchoredPosition: {x: 0, y: -0.0355}
  m_SizeDelta: {x: 0.073, y: 0.045}
  m_Pivot: {x: 0.5, y: 0.5}
--- !u!222 &2664471940165738671
CanvasRenderer:
  m_ObjectHideFlags: 0
  m_CorrespondingSourceObject: {fileID: 0}
  m_PrefabInstance: {fileID: 0}
  m_PrefabAsset: {fileID: 0}
  m_GameObject: {fileID: 1645339236151511437}
  m_CullTransparentMesh: 0
--- !u!114 &596252665213641184
MonoBehaviour:
  m_ObjectHideFlags: 0
  m_CorrespondingSourceObject: {fileID: 0}
  m_PrefabInstance: {fileID: 0}
  m_PrefabAsset: {fileID: 0}
  m_GameObject: {fileID: 1645339236151511437}
  m_Enabled: 1
  m_EditorHideFlags: 0
  m_Script: {fileID: 11500000, guid: fe87c0e1cc204ed48ad3b37840f39efc, type: 3}
  m_Name: 
  m_EditorClassIdentifier: 
  m_Material: {fileID: 0}
  m_Color: {r: 0.9960785, g: 0.9960785, b: 0.058823533, a: 1}
  m_RaycastTarget: 1
  m_Maskable: 1
  m_OnCullStateChanged:
    m_PersistentCalls:
      m_Calls: []
  m_Sprite: {fileID: 21300000, guid: 7f59fea91fa2f4946a85f82698fbb045, type: 3}
  m_Type: 0
  m_PreserveAspect: 0
  m_FillCenter: 1
  m_FillMethod: 4
  m_FillAmount: 1
  m_FillClockwise: 1
  m_FillOrigin: 0
  m_UseSpriteMesh: 0
  m_PixelsPerUnitMultiplier: 1
--- !u!114 &2785091855811504234
MonoBehaviour:
  m_ObjectHideFlags: 0
  m_CorrespondingSourceObject: {fileID: 0}
  m_PrefabInstance: {fileID: 0}
  m_PrefabAsset: {fileID: 0}
  m_GameObject: {fileID: 1645339236151511437}
  m_Enabled: 1
  m_EditorHideFlags: 0
  m_Script: {fileID: 11500000, guid: e19747de3f5aca642ab2be37e372fb86, type: 3}
  m_Name: 
  m_EditorClassIdentifier: 
  m_EffectColor: {r: 0.8352942, g: 0.56078434, b: 0.1254902, a: 1}
  m_EffectDistance: {x: 0.001, y: 0.001}
  m_UseGraphicAlpha: 1
--- !u!1 &2748962372653138273
GameObject:
  m_ObjectHideFlags: 0
  m_CorrespondingSourceObject: {fileID: 0}
  m_PrefabInstance: {fileID: 0}
  m_PrefabAsset: {fileID: 0}
  serializedVersion: 6
  m_Component:
  - component: {fileID: 3385171791806616486}
  - component: {fileID: 4488316070435852750}
  - component: {fileID: 6980532911020996972}
  - component: {fileID: 5472842227164776019}
  m_Layer: 9
  m_Name: Canvas
  m_TagString: Untagged
  m_Icon: {fileID: 0}
  m_NavMeshLayer: 0
  m_StaticEditorFlags: 0
  m_IsActive: 1
--- !u!224 &3385171791806616486
RectTransform:
  m_ObjectHideFlags: 0
  m_CorrespondingSourceObject: {fileID: 0}
  m_PrefabInstance: {fileID: 0}
  m_PrefabAsset: {fileID: 0}
  m_GameObject: {fileID: 2748962372653138273}
  m_LocalRotation: {x: 0, y: 0, z: 0, w: 1}
  m_LocalPosition: {x: 0, y: 0, z: 21.21}
  m_LocalScale: {x: 100, y: 100, z: 100}
  m_Children:
  - {fileID: 588183191328449207}
  - {fileID: 6079325271601941290}
  - {fileID: 3363823998034535575}
  - {fileID: 534575404628299907}
  m_Father: {fileID: 7753518235482385293}
  m_RootOrder: 3
  m_LocalEulerAnglesHint: {x: 0, y: 0, z: 0}
  m_AnchorMin: {x: 0, y: 0}
  m_AnchorMax: {x: 0, y: 0}
  m_AnchoredPosition: {x: 0.04, y: 95.78}
  m_SizeDelta: {x: 0.05, y: 0.055}
  m_Pivot: {x: 0.5, y: 0.5}
--- !u!223 &4488316070435852750
Canvas:
  m_ObjectHideFlags: 0
  m_CorrespondingSourceObject: {fileID: 0}
  m_PrefabInstance: {fileID: 0}
  m_PrefabAsset: {fileID: 0}
  m_GameObject: {fileID: 2748962372653138273}
  m_Enabled: 1
  serializedVersion: 3
  m_RenderMode: 2
  m_Camera: {fileID: 0}
  m_PlaneDistance: 100
  m_PixelPerfect: 0
  m_ReceivesEvents: 1
  m_OverrideSorting: 0
  m_OverridePixelPerfect: 0
  m_SortingBucketNormalizedSize: 0
  m_AdditionalShaderChannelsFlag: 25
  m_SortingLayerID: 0
  m_SortingOrder: 0
  m_TargetDisplay: 0
--- !u!114 &6980532911020996972
MonoBehaviour:
  m_ObjectHideFlags: 0
  m_CorrespondingSourceObject: {fileID: 0}
  m_PrefabInstance: {fileID: 0}
  m_PrefabAsset: {fileID: 0}
  m_GameObject: {fileID: 2748962372653138273}
  m_Enabled: 1
  m_EditorHideFlags: 0
  m_Script: {fileID: 11500000, guid: 0cd44c1031e13a943bb63640046fad76, type: 3}
  m_Name: 
  m_EditorClassIdentifier: 
  m_UiScaleMode: 0
  m_ReferencePixelsPerUnit: 100
  m_ScaleFactor: 1
  m_ReferenceResolution: {x: 800, y: 600}
  m_ScreenMatchMode: 0
  m_MatchWidthOrHeight: 0
  m_PhysicalUnit: 3
  m_FallbackScreenDPI: 96
  m_DefaultSpriteDPI: 96
  m_DynamicPixelsPerUnit: 1
--- !u!114 &5472842227164776019
MonoBehaviour:
  m_ObjectHideFlags: 0
  m_CorrespondingSourceObject: {fileID: 0}
  m_PrefabInstance: {fileID: 0}
  m_PrefabAsset: {fileID: 0}
  m_GameObject: {fileID: 2748962372653138273}
  m_Enabled: 1
  m_EditorHideFlags: 0
  m_Script: {fileID: 11500000, guid: dc42784cf147c0c48a680349fa168899, type: 3}
  m_Name: 
  m_EditorClassIdentifier: 
  m_IgnoreReversedGraphics: 1
  m_BlockingObjects: 0
  m_BlockingMask:
    serializedVersion: 2
    m_Bits: 4294967295
--- !u!1 &2864820957805811211
GameObject:
  m_ObjectHideFlags: 0
  m_CorrespondingSourceObject: {fileID: 0}
  m_PrefabInstance: {fileID: 0}
  m_PrefabAsset: {fileID: 0}
  serializedVersion: 6
  m_Component:
  - component: {fileID: 2864820957805811208}
  m_Layer: 9
  m_Name: ProjectileSpawner
  m_TagString: Untagged
  m_Icon: {fileID: 0}
  m_NavMeshLayer: 0
  m_StaticEditorFlags: 0
  m_IsActive: 1
--- !u!4 &2864820957805811208
Transform:
  m_ObjectHideFlags: 0
  m_CorrespondingSourceObject: {fileID: 0}
  m_PrefabInstance: {fileID: 0}
  m_PrefabAsset: {fileID: 0}
  m_GameObject: {fileID: 2864820957805811211}
  m_LocalRotation: {x: 0.00039536873, y: -0.010117054, z: -0.016265962, w: 0.9998164}
  m_LocalPosition: {x: -0.7, y: 85.3, z: 141.8}
  m_LocalScale: {x: 10, y: 10, z: 10}
  m_Children: []
  m_Father: {fileID: 7753518235482385293}
  m_RootOrder: 2
  m_LocalEulerAnglesHint: {x: 0, y: 0, z: 0}
--- !u!1 &2864820959198554368
GameObject:
  m_ObjectHideFlags: 0
  m_CorrespondingSourceObject: {fileID: 0}
  m_PrefabInstance: {fileID: 0}
  m_PrefabAsset: {fileID: 0}
  serializedVersion: 6
  m_Component:
  - component: {fileID: 2864820959198554369}
  - component: {fileID: 5596386738465220155}
  - component: {fileID: 2295307763537824873}
  - component: {fileID: 6553608800325939929}
  - component: {fileID: 5442533221384978865}
  - component: {fileID: -1009994944953234624}
  m_Layer: 9
  m_Name: PompaContenitore
  m_TagString: Weapon
  m_Icon: {fileID: 0}
  m_NavMeshLayer: 0
  m_StaticEditorFlags: 0
  m_IsActive: 1
--- !u!4 &2864820959198554369
Transform:
  m_ObjectHideFlags: 0
  m_CorrespondingSourceObject: {fileID: 0}
  m_PrefabInstance: {fileID: 0}
  m_PrefabAsset: {fileID: 0}
  m_GameObject: {fileID: 2864820959198554368}
  m_LocalRotation: {x: -0, y: -0, z: 0.0150093045, w: 0.99988735}
  m_LocalPosition: {x: 0.258, y: -0.315, z: 1.2}
  m_LocalScale: {x: 1, y: 1, z: 1}
  m_Children:
  - {fileID: 7753518235482385293}
  m_Father: {fileID: 0}
  m_RootOrder: 0
  m_LocalEulerAnglesHint: {x: 0, y: 0, z: 1.72}
--- !u!65 &5596386738465220155
BoxCollider:
  m_ObjectHideFlags: 0
  m_CorrespondingSourceObject: {fileID: 0}
  m_PrefabInstance: {fileID: 0}
  m_PrefabAsset: {fileID: 0}
  m_GameObject: {fileID: 2864820959198554368}
  m_Material: {fileID: 0}
  m_IsTrigger: 1
  m_Enabled: 1
  serializedVersion: 2
  m_Size: {x: 0.5727707, y: 0.38148856, z: 0.5327666}
  m_Center: {x: 0.09038877, y: 0.01877129, z: -0.30819756}
--- !u!114 &2295307763537824873
MonoBehaviour:
  m_ObjectHideFlags: 0
  m_CorrespondingSourceObject: {fileID: 0}
  m_PrefabInstance: {fileID: 0}
  m_PrefabAsset: {fileID: 0}
  m_GameObject: {fileID: 2864820959198554368}
  m_Enabled: 1
  m_EditorHideFlags: 0
  m_Script: {fileID: 11500000, guid: 9dd30bda2924e624abca15b479ec55bd, type: 3}
  m_Name: 
  m_EditorClassIdentifier: 
  weaponData: {fileID: 11400000, guid: 9a607d541dd8bdc45a6c334363945831, type: 2}
  TotalDamage: 0
  FireRateo: 0
  CurrentAmmo: 0
  GunBarrel: {fileID: 2864820957805811208}
  WeaponBulletPrefab: {fileID: 7476097639186295460, guid: b9e7cbac1003dae4cb026c554c132137,
    type: 3}
  ShootingType: {fileID: 6553608800325939929}
--- !u!114 &6553608800325939929
MonoBehaviour:
  m_ObjectHideFlags: 0
  m_CorrespondingSourceObject: {fileID: 0}
  m_PrefabInstance: {fileID: 0}
  m_PrefabAsset: {fileID: 0}
  m_GameObject: {fileID: 2864820959198554368}
  m_Enabled: 1
  m_EditorHideFlags: 0
  m_Script: {fileID: 11500000, guid: 9c6c30387a267474ea3f214f89508a11, type: 3}
  m_Name: 
  m_EditorClassIdentifier: 
  ShotCooldown: 0.1
  IsAutomatic: 0
  PalletShotNumber: 5
  Bloom: 12
  testProperties:
    angle: 270
    strength: 1
    speed: 15
    duration: 0.1
    noisePercent: 0.1
    dampingPercent: 0
    rotationPercent: 0.5
  Pompa: {fileID: 5442533221384978865}
  Flash: {fileID: 5200451215727207784, guid: fdd314065ced06a449f6ef535d8cf625, type: 3}
  Parent: {fileID: 2864820957805811208}
--- !u!95 &5442533221384978865
Animator:
  serializedVersion: 3
  m_ObjectHideFlags: 0
  m_CorrespondingSourceObject: {fileID: 0}
  m_PrefabInstance: {fileID: 0}
  m_PrefabAsset: {fileID: 0}
  m_GameObject: {fileID: 2864820959198554368}
  m_Enabled: 1
  m_Avatar: {fileID: 0}
  m_Controller: {fileID: 9100000, guid: e42cc49e420d2fe4783448506e9941dc, type: 2}
  m_CullingMode: 0
  m_UpdateMode: 0
  m_ApplyRootMotion: 0
  m_LinearVelocityBlending: 0
  m_WarningMessage: 
  m_HasTransformHierarchy: 1
  m_AllowConstantClipSamplingOptimization: 1
  m_KeepAnimatorControllerStateOnDisable: 0
--- !u!114 &-1009994944953234624
MonoBehaviour:
  m_ObjectHideFlags: 0
  m_CorrespondingSourceObject: {fileID: 0}
  m_PrefabInstance: {fileID: 0}
  m_PrefabAsset: {fileID: 0}
  m_GameObject: {fileID: 2864820959198554368}
  m_Enabled: 1
  m_EditorHideFlags: 0
  m_Script: {fileID: 11500000, guid: 65374c70f3d66e7429363d760a16a373, type: 3}
  m_Name: 
  m_EditorClassIdentifier: 
  anim: {fileID: 5442533221384978865}
  sparo: Sparo
  vadoAvanti: Move
  destra: 
  sinistra: 
  Jump: 
--- !u!1 &2891865276488549967
GameObject:
  m_ObjectHideFlags: 0
  m_CorrespondingSourceObject: {fileID: 0}
  m_PrefabInstance: {fileID: 0}
  m_PrefabAsset: {fileID: 0}
  serializedVersion: 6
  m_Component:
  - component: {fileID: 6330395114375436031}
  - component: {fileID: 4030831671347924419}
  - component: {fileID: 571321139654529824}
  m_Layer: 9
  m_Name: AmmoCounter
  m_TagString: Untagged
  m_Icon: {fileID: 0}
  m_NavMeshLayer: 0
  m_StaticEditorFlags: 0
  m_IsActive: 1
--- !u!224 &6330395114375436031
RectTransform:
  m_ObjectHideFlags: 0
  m_CorrespondingSourceObject: {fileID: 0}
  m_PrefabInstance: {fileID: 0}
  m_PrefabAsset: {fileID: 0}
  m_GameObject: {fileID: 2891865276488549967}
  m_LocalRotation: {x: -0.0000000037252894, y: -9.3132235e-10, z: 0.0000000027357594,
    w: 1}
  m_LocalPosition: {x: 0, y: 0, z: -0}
  m_LocalScale: {x: 1, y: 1, z: 1}
  m_Children: []
  m_Father: {fileID: 588183191328449207}
  m_RootOrder: 0
  m_LocalEulerAnglesHint: {x: 0, y: 0, z: 0}
  m_AnchorMin: {x: 0.5, y: 0.5}
  m_AnchorMax: {x: 0.5, y: 0.5}
  m_AnchoredPosition: {x: -0, y: 0.0573}
  m_SizeDelta: {x: 0.1, y: 0.055}
  m_Pivot: {x: 0.5, y: 0.5}
--- !u!222 &4030831671347924419
CanvasRenderer:
  m_ObjectHideFlags: 0
  m_CorrespondingSourceObject: {fileID: 0}
  m_PrefabInstance: {fileID: 0}
  m_PrefabAsset: {fileID: 0}
  m_GameObject: {fileID: 2891865276488549967}
  m_CullTransparentMesh: 0
--- !u!114 &571321139654529824
MonoBehaviour:
  m_ObjectHideFlags: 0
  m_CorrespondingSourceObject: {fileID: 0}
  m_PrefabInstance: {fileID: 0}
  m_PrefabAsset: {fileID: 0}
  m_GameObject: {fileID: 2891865276488549967}
  m_Enabled: 1
  m_EditorHideFlags: 0
  m_Script: {fileID: 11500000, guid: f4688fdb7df04437aeb418b961361dc5, type: 3}
  m_Name: 
  m_EditorClassIdentifier: 
  m_Material: {fileID: 0}
  m_Color: {r: 1, g: 1, b: 1, a: 1}
  m_RaycastTarget: 1
  m_Maskable: 1
  m_OnCullStateChanged:
    m_PersistentCalls:
      m_Calls: []
  m_text: 3
  m_isRightToLeft: 0
  m_fontAsset: {fileID: 11400000, guid: f100a92784c2e134bb36ba70f81eca7c, type: 2}
  m_sharedMaterial: {fileID: -3859236054256037424, guid: f100a92784c2e134bb36ba70f81eca7c,
    type: 2}
  m_fontSharedMaterials: []
  m_fontMaterial: {fileID: 0}
  m_fontMaterials: []
  m_fontColor32:
    serializedVersion: 2
    rgba: 4278972158
  m_fontColor: {r: 0.9960785, g: 0.9333334, b: 0.043137256, a: 1}
  m_enableVertexGradient: 0
  m_colorMode: 3
  m_fontColorGradient:
    topLeft: {r: 1, g: 1, b: 1, a: 1}
    topRight: {r: 1, g: 1, b: 1, a: 1}
    bottomLeft: {r: 1, g: 1, b: 1, a: 1}
    bottomRight: {r: 1, g: 1, b: 1, a: 1}
  m_fontColorGradientPreset: {fileID: 0}
  m_spriteAsset: {fileID: 0}
  m_tintAllSprites: 0
  m_StyleSheet: {fileID: 0}
  m_TextStyleHashCode: -1183493901
  m_overrideHtmlColors: 0
  m_faceColor:
    serializedVersion: 2
    rgba: 4294967295
  m_fontSize: 0.12
  m_fontSizeBase: 0.12
  m_fontWeight: 400
  m_enableAutoSizing: 0
  m_fontSizeMin: 18
  m_fontSizeMax: 72
  m_fontStyle: 1
  m_HorizontalAlignment: 2
  m_VerticalAlignment: 512
  m_textAlignment: 65535
  m_characterSpacing: 0
  m_wordSpacing: 0
  m_lineSpacing: 0
  m_lineSpacingMax: 0
  m_paragraphSpacing: 0
  m_charWidthMaxAdj: 0
  m_enableWordWrapping: 1
  m_wordWrappingRatios: 0.4
  m_overflowMode: 0
  m_linkedTextComponent: {fileID: 0}
  parentLinkedComponent: {fileID: 0}
  m_enableKerning: 1
  m_enableExtraPadding: 0
  checkPaddingRequired: 0
  m_isRichText: 1
  m_parseCtrlCharacters: 1
  m_isOrthographic: 1
  m_isCullingEnabled: 0
  m_horizontalMapping: 0
  m_verticalMapping: 0
  m_uvLineOffset: 0
  m_geometrySortingOrder: 0
  m_IsTextObjectScaleStatic: 0
  m_VertexBufferAutoSizeReduction: 1
  m_useMaxVisibleDescender: 1
  m_pageToDisplay: 1
  m_margin: {x: 0, y: 0, z: 0, w: 0}
  m_isUsingLegacyAnimationComponent: 0
  m_isVolumetricText: 0
  m_hasFontAssetChanged: 0
  m_baseMaterial: {fileID: 0}
  m_maskOffset: {x: 0, y: 0, z: 0, w: 0}
--- !u!1 &4148950600374994680
GameObject:
  m_ObjectHideFlags: 0
  m_CorrespondingSourceObject: {fileID: 0}
  m_PrefabInstance: {fileID: 0}
  m_PrefabAsset: {fileID: 0}
  serializedVersion: 6
  m_Component:
  - component: {fileID: 534575404628299907}
  - component: {fileID: 1391236241692062826}
  - component: {fileID: 9118181530890243408}
  - component: {fileID: 3232129514298335870}
  m_Layer: 9
  m_Name: Image (3)
  m_TagString: Untagged
  m_Icon: {fileID: 0}
  m_NavMeshLayer: 0
  m_StaticEditorFlags: 0
  m_IsActive: 1
--- !u!224 &534575404628299907
RectTransform:
  m_ObjectHideFlags: 0
  m_CorrespondingSourceObject: {fileID: 0}
  m_PrefabInstance: {fileID: 0}
  m_PrefabAsset: {fileID: 0}
  m_GameObject: {fileID: 4148950600374994680}
  m_LocalRotation: {x: 0.7071068, y: 0, z: 0, w: 0.7071068}
  m_LocalPosition: {x: 0, y: 0, z: 0}
  m_LocalScale: {x: 1, y: 1, z: 1}
  m_Children: []
  m_Father: {fileID: 3385171791806616486}
  m_RootOrder: 3
  m_LocalEulerAnglesHint: {x: 90, y: 0, z: 0}
  m_AnchorMin: {x: 0.5, y: 0.5}
  m_AnchorMax: {x: 0.5, y: 0.5}
  m_AnchoredPosition: {x: 0, y: -0.0249}
  m_SizeDelta: {x: 0.053, y: 0.025}
  m_Pivot: {x: 0.5, y: 0.5}
--- !u!222 &1391236241692062826
CanvasRenderer:
  m_ObjectHideFlags: 0
  m_CorrespondingSourceObject: {fileID: 0}
  m_PrefabInstance: {fileID: 0}
  m_PrefabAsset: {fileID: 0}
  m_GameObject: {fileID: 4148950600374994680}
  m_CullTransparentMesh: 0
--- !u!114 &9118181530890243408
MonoBehaviour:
  m_ObjectHideFlags: 0
  m_CorrespondingSourceObject: {fileID: 0}
  m_PrefabInstance: {fileID: 0}
  m_PrefabAsset: {fileID: 0}
  m_GameObject: {fileID: 4148950600374994680}
  m_Enabled: 1
  m_EditorHideFlags: 0
  m_Script: {fileID: 11500000, guid: fe87c0e1cc204ed48ad3b37840f39efc, type: 3}
  m_Name: 
  m_EditorClassIdentifier: 
  m_Material: {fileID: 0}
  m_Color: {r: 0.9960785, g: 0.9960785, b: 0.058823533, a: 1}
  m_RaycastTarget: 1
  m_Maskable: 1
  m_OnCullStateChanged:
    m_PersistentCalls:
      m_Calls: []
  m_Sprite: {fileID: 21300000, guid: 7f59fea91fa2f4946a85f82698fbb045, type: 3}
  m_Type: 0
  m_PreserveAspect: 0
  m_FillCenter: 1
  m_FillMethod: 4
  m_FillAmount: 1
  m_FillClockwise: 1
  m_FillOrigin: 0
  m_UseSpriteMesh: 0
  m_PixelsPerUnitMultiplier: 1
--- !u!114 &3232129514298335870
MonoBehaviour:
  m_ObjectHideFlags: 0
  m_CorrespondingSourceObject: {fileID: 0}
  m_PrefabInstance: {fileID: 0}
  m_PrefabAsset: {fileID: 0}
  m_GameObject: {fileID: 4148950600374994680}
  m_Enabled: 1
  m_EditorHideFlags: 0
  m_Script: {fileID: 11500000, guid: e19747de3f5aca642ab2be37e372fb86, type: 3}
  m_Name: 
  m_EditorClassIdentifier: 
  m_EffectColor: {r: 0.8352942, g: 0.56078434, b: 0.1254902, a: 1}
  m_EffectDistance: {x: 0.001, y: 0.001}
  m_UseGraphicAlpha: 1
--- !u!1 &4865640327945565212
GameObject:
  m_ObjectHideFlags: 0
  m_CorrespondingSourceObject: {fileID: 0}
  m_PrefabInstance: {fileID: 0}
  m_PrefabAsset: {fileID: 0}
  serializedVersion: 6
  m_Component:
  - component: {fileID: 588183191328449207}
  - component: {fileID: 8635730227231178320}
  - component: {fileID: 9183092753863236151}
  m_Layer: 9
  m_Name: Image
  m_TagString: Untagged
  m_Icon: {fileID: 0}
  m_NavMeshLayer: 0
  m_StaticEditorFlags: 0
  m_IsActive: 1
--- !u!224 &588183191328449207
RectTransform:
  m_ObjectHideFlags: 0
  m_CorrespondingSourceObject: {fileID: 0}
  m_PrefabInstance: {fileID: 0}
  m_PrefabAsset: {fileID: 0}
  m_GameObject: {fileID: 4865640327945565212}
  m_LocalRotation: {x: 0, y: 0, z: 0, w: 1}
  m_LocalPosition: {x: 0, y: 0, z: 0}
  m_LocalScale: {x: 1, y: 1, z: 1}
  m_Children:
  - {fileID: 6330395114375436031}
  m_Father: {fileID: 3385171791806616486}
  m_RootOrder: 0
  m_LocalEulerAnglesHint: {x: 0, y: 0, z: 0}
  m_AnchorMin: {x: 0.5, y: 0.5}
  m_AnchorMax: {x: 0.5, y: 0.5}
  m_AnchoredPosition: {x: 0, y: 0}
  m_SizeDelta: {x: 0.1, y: 0.1}
  m_Pivot: {x: 0.5, y: 0.5}
--- !u!222 &8635730227231178320
CanvasRenderer:
  m_ObjectHideFlags: 0
  m_CorrespondingSourceObject: {fileID: 0}
  m_PrefabInstance: {fileID: 0}
  m_PrefabAsset: {fileID: 0}
  m_GameObject: {fileID: 4865640327945565212}
  m_CullTransparentMesh: 0
--- !u!114 &9183092753863236151
MonoBehaviour:
  m_ObjectHideFlags: 0
  m_CorrespondingSourceObject: {fileID: 0}
  m_PrefabInstance: {fileID: 0}
  m_PrefabAsset: {fileID: 0}
  m_GameObject: {fileID: 4865640327945565212}
  m_Enabled: 1
  m_EditorHideFlags: 0
  m_Script: {fileID: 11500000, guid: fe87c0e1cc204ed48ad3b37840f39efc, type: 3}
  m_Name: 
  m_EditorClassIdentifier: 
  m_Material: {fileID: 0}
  m_Color: {r: 0.9960785, g: 0.9960785, b: 0.058823533, a: 1}
  m_RaycastTarget: 1
  m_Maskable: 1
  m_OnCullStateChanged:
    m_PersistentCalls:
      m_Calls: []
  m_Sprite: {fileID: 21300000, guid: c90be74ad99822f4eb6eddea888f195f, type: 3}
  m_Type: 0
  m_PreserveAspect: 0
  m_FillCenter: 1
  m_FillMethod: 4
  m_FillAmount: 1
  m_FillClockwise: 1
  m_FillOrigin: 0
  m_UseSpriteMesh: 0
  m_PixelsPerUnitMultiplier: 1
--- !u!1 &5121202346879893273
GameObject:
  m_ObjectHideFlags: 0
  m_CorrespondingSourceObject: {fileID: 0}
  m_PrefabInstance: {fileID: 0}
  m_PrefabAsset: {fileID: 0}
  serializedVersion: 6
  m_Component:
  - component: {fileID: 6079325271601941290}
  - component: {fileID: 2446807729062639994}
  - component: {fileID: 5791377372281200883}
  - component: {fileID: 8650241540011511806}
  m_Layer: 9
  m_Name: Image (1)
  m_TagString: Untagged
  m_Icon: {fileID: 0}
  m_NavMeshLayer: 0
  m_StaticEditorFlags: 0
  m_IsActive: 1
--- !u!224 &6079325271601941290
RectTransform:
  m_ObjectHideFlags: 0
  m_CorrespondingSourceObject: {fileID: 0}
  m_PrefabInstance: {fileID: 0}
  m_PrefabAsset: {fileID: 0}
  m_GameObject: {fileID: 5121202346879893273}
  m_LocalRotation: {x: 0.7071068, y: 0, z: 0, w: 0.7071068}
  m_LocalPosition: {x: 0, y: 0, z: -0}
  m_LocalScale: {x: 1, y: 1, z: 1}
  m_Children: []
  m_Father: {fileID: 3385171791806616486}
  m_RootOrder: 1
  m_LocalEulerAnglesHint: {x: 90, y: 0, z: 0}
  m_AnchorMin: {x: 0.5, y: 0.5}
  m_AnchorMax: {x: 0.5, y: 0.5}
  m_AnchoredPosition: {x: -0, y: -0.044}
  m_SizeDelta: {x: 0.093, y: 0.065}
  m_Pivot: {x: 0.5, y: 0.5}
--- !u!222 &2446807729062639994
CanvasRenderer:
  m_ObjectHideFlags: 0
  m_CorrespondingSourceObject: {fileID: 0}
  m_PrefabInstance: {fileID: 0}
  m_PrefabAsset: {fileID: 0}
  m_GameObject: {fileID: 5121202346879893273}
  m_CullTransparentMesh: 0
--- !u!114 &5791377372281200883
MonoBehaviour:
  m_ObjectHideFlags: 0
  m_CorrespondingSourceObject: {fileID: 0}
  m_PrefabInstance: {fileID: 0}
  m_PrefabAsset: {fileID: 0}
  m_GameObject: {fileID: 5121202346879893273}
  m_Enabled: 1
  m_EditorHideFlags: 0
  m_Script: {fileID: 11500000, guid: fe87c0e1cc204ed48ad3b37840f39efc, type: 3}
  m_Name: 
  m_EditorClassIdentifier: 
  m_Material: {fileID: 0}
  m_Color: {r: 0.9960785, g: 0.9960785, b: 0.058823533, a: 1}
  m_RaycastTarget: 1
  m_Maskable: 1
  m_OnCullStateChanged:
    m_PersistentCalls:
      m_Calls: []
  m_Sprite: {fileID: 21300000, guid: 7f59fea91fa2f4946a85f82698fbb045, type: 3}
  m_Type: 0
  m_PreserveAspect: 0
  m_FillCenter: 1
  m_FillMethod: 4
  m_FillAmount: 1
  m_FillClockwise: 1
  m_FillOrigin: 0
  m_UseSpriteMesh: 0
  m_PixelsPerUnitMultiplier: 1
--- !u!114 &8650241540011511806
MonoBehaviour:
  m_ObjectHideFlags: 0
  m_CorrespondingSourceObject: {fileID: 0}
  m_PrefabInstance: {fileID: 0}
  m_PrefabAsset: {fileID: 0}
  m_GameObject: {fileID: 5121202346879893273}
  m_Enabled: 1
  m_EditorHideFlags: 0
  m_Script: {fileID: 11500000, guid: e19747de3f5aca642ab2be37e372fb86, type: 3}
  m_Name: 
  m_EditorClassIdentifier: 
  m_EffectColor: {r: 0.8352942, g: 0.56078434, b: 0.1254902, a: 1}
  m_EffectDistance: {x: 0.001, y: 0.001}
  m_UseGraphicAlpha: 1
--- !u!1 &6553139985341519974
GameObject:
  m_ObjectHideFlags: 0
  m_CorrespondingSourceObject: {fileID: 0}
  m_PrefabInstance: {fileID: 0}
  m_PrefabAsset: {fileID: 0}
  serializedVersion: 6
  m_Component:
  - component: {fileID: 1409504468316331883}
  - component: {fileID: 5080660953537241385}
  - component: {fileID: 1166053350328781681}
  m_Layer: 5
  m_Name: Crosshair
  m_TagString: Untagged
  m_Icon: {fileID: 0}
  m_NavMeshLayer: 0
  m_StaticEditorFlags: 0
  m_IsActive: 1
--- !u!224 &1409504468316331883
RectTransform:
  m_ObjectHideFlags: 0
  m_CorrespondingSourceObject: {fileID: 0}
  m_PrefabInstance: {fileID: 0}
  m_PrefabAsset: {fileID: 0}
  m_GameObject: {fileID: 6553139985341519974}
  m_LocalRotation: {x: -0.0000000023283062, y: -0, z: -6.548361e-11, w: 1}
  m_LocalPosition: {x: 0, y: 0, z: 0}
  m_LocalScale: {x: 0.8, y: 0.8, z: 1}
  m_Children: []
  m_Father: {fileID: 4499245878669767391}
  m_RootOrder: 0
  m_LocalEulerAnglesHint: {x: 0, y: 0, z: 0}
  m_AnchorMin: {x: 0.5, y: 0.5}
  m_AnchorMax: {x: 0.5, y: 0.5}
  m_AnchoredPosition: {x: 0, y: 0}
  m_SizeDelta: {x: 100, y: 100}
  m_Pivot: {x: 0.5, y: 0.5}
--- !u!222 &5080660953537241385
CanvasRenderer:
  m_ObjectHideFlags: 0
  m_CorrespondingSourceObject: {fileID: 0}
  m_PrefabInstance: {fileID: 0}
  m_PrefabAsset: {fileID: 0}
  m_GameObject: {fileID: 6553139985341519974}
  m_CullTransparentMesh: 0
--- !u!114 &1166053350328781681
MonoBehaviour:
  m_ObjectHideFlags: 0
  m_CorrespondingSourceObject: {fileID: 0}
  m_PrefabInstance: {fileID: 0}
  m_PrefabAsset: {fileID: 0}
  m_GameObject: {fileID: 6553139985341519974}
  m_Enabled: 1
  m_EditorHideFlags: 0
  m_Script: {fileID: 11500000, guid: fe87c0e1cc204ed48ad3b37840f39efc, type: 3}
  m_Name: 
  m_EditorClassIdentifier: 
  m_Material: {fileID: 0}
  m_Color: {r: 1, g: 1, b: 1, a: 1}
  m_RaycastTarget: 1
  m_Maskable: 1
  m_OnCullStateChanged:
    m_PersistentCalls:
      m_Calls: []
  m_Sprite: {fileID: 21300000, guid: ee35c7f56a8ce7341b5257fd7027f28e, type: 3}
  m_Type: 0
  m_PreserveAspect: 0
  m_FillCenter: 1
  m_FillMethod: 4
  m_FillAmount: 1
  m_FillClockwise: 1
  m_FillOrigin: 0
  m_UseSpriteMesh: 0
  m_PixelsPerUnitMultiplier: 1
--- !u!1 &8953640332470815733
GameObject:
  m_ObjectHideFlags: 0
  m_CorrespondingSourceObject: {fileID: 0}
  m_PrefabInstance: {fileID: 0}
  m_PrefabAsset: {fileID: 0}
  serializedVersion: 6
  m_Component:
  - component: {fileID: 4499245878669767391}
  - component: {fileID: 1311634869658790502}
  - component: {fileID: 5444789069755814891}
  - component: {fileID: 2873646236747789446}
  m_Layer: 9
  m_Name: Canvas Cross
  m_TagString: Untagged
  m_Icon: {fileID: 0}
  m_NavMeshLayer: 0
  m_StaticEditorFlags: 0
  m_IsActive: 1
--- !u!224 &4499245878669767391
RectTransform:
  m_ObjectHideFlags: 0
  m_CorrespondingSourceObject: {fileID: 0}
  m_PrefabInstance: {fileID: 0}
  m_PrefabAsset: {fileID: 0}
  m_GameObject: {fileID: 8953640332470815733}
  m_LocalRotation: {x: 0, y: 0, z: 0, w: 1}
  m_LocalPosition: {x: 0, y: 0, z: 0}
  m_LocalScale: {x: 0, y: 0, z: 0}
  m_Children:
  - {fileID: 1409504468316331883}
  m_Father: {fileID: 7753518235482385293}
  m_RootOrder: 5
  m_LocalEulerAnglesHint: {x: 0, y: 0, z: 0}
  m_AnchorMin: {x: 0, y: 0}
  m_AnchorMax: {x: 0, y: 0}
  m_AnchoredPosition: {x: 0, y: 0}
  m_SizeDelta: {x: 0, y: 0}
  m_Pivot: {x: 0, y: 0}
--- !u!223 &1311634869658790502
Canvas:
  m_ObjectHideFlags: 0
  m_CorrespondingSourceObject: {fileID: 0}
  m_PrefabInstance: {fileID: 0}
  m_PrefabAsset: {fileID: 0}
  m_GameObject: {fileID: 8953640332470815733}
  m_Enabled: 1
  serializedVersion: 3
  m_RenderMode: 0
  m_Camera: {fileID: 0}
  m_PlaneDistance: 100
  m_PixelPerfect: 0
  m_ReceivesEvents: 1
  m_OverrideSorting: 0
  m_OverridePixelPerfect: 0
  m_SortingBucketNormalizedSize: 0
  m_AdditionalShaderChannelsFlag: 25
  m_SortingLayerID: 0
  m_SortingOrder: 0
  m_TargetDisplay: 0
--- !u!114 &5444789069755814891
MonoBehaviour:
  m_ObjectHideFlags: 0
  m_CorrespondingSourceObject: {fileID: 0}
  m_PrefabInstance: {fileID: 0}
  m_PrefabAsset: {fileID: 0}
  m_GameObject: {fileID: 8953640332470815733}
  m_Enabled: 1
  m_EditorHideFlags: 0
  m_Script: {fileID: 11500000, guid: 0cd44c1031e13a943bb63640046fad76, type: 3}
  m_Name: 
  m_EditorClassIdentifier: 
  m_UiScaleMode: 0
  m_ReferencePixelsPerUnit: 100
  m_ScaleFactor: 1
  m_ReferenceResolution: {x: 800, y: 600}
  m_ScreenMatchMode: 0
  m_MatchWidthOrHeight: 0
  m_PhysicalUnit: 3
  m_FallbackScreenDPI: 96
  m_DefaultSpriteDPI: 96
  m_DynamicPixelsPerUnit: 1
--- !u!114 &2873646236747789446
MonoBehaviour:
  m_ObjectHideFlags: 0
  m_CorrespondingSourceObject: {fileID: 0}
  m_PrefabInstance: {fileID: 0}
  m_PrefabAsset: {fileID: 0}
  m_GameObject: {fileID: 8953640332470815733}
  m_Enabled: 1
  m_EditorHideFlags: 0
  m_Script: {fileID: 11500000, guid: dc42784cf147c0c48a680349fa168899, type: 3}
  m_Name: 
  m_EditorClassIdentifier: 
  m_IgnoreReversedGraphics: 1
  m_BlockingObjects: 0
  m_BlockingMask:
    serializedVersion: 2
    m_Bits: 4294967295
--- !u!1001 &3469452995236575079
PrefabInstance:
  m_ObjectHideFlags: 0
  serializedVersion: 2
  m_Modification:
    m_TransformParent: {fileID: 7753518235482385293}
    m_Modifications:
    - target: {fileID: 50089787249092573, guid: 37af3df503ec88f4199ad564ba669b8a,
        type: 3}
      propertyPath: m_LocalPosition.x
      value: -0.0725895
      objectReference: {fileID: 0}
    - target: {fileID: 50089787249092573, guid: 37af3df503ec88f4199ad564ba669b8a,
        type: 3}
      propertyPath: m_LocalPosition.y
      value: -0.0000012516975
      objectReference: {fileID: 0}
    - target: {fileID: 50089787249092573, guid: 37af3df503ec88f4199ad564ba669b8a,
        type: 3}
      propertyPath: m_LocalPosition.z
      value: 0.083272696
      objectReference: {fileID: 0}
    - target: {fileID: 50089787249092573, guid: 37af3df503ec88f4199ad564ba669b8a,
        type: 3}
      propertyPath: m_LocalRotation.w
      value: 0.8633066
      objectReference: {fileID: 0}
    - target: {fileID: 50089787249092573, guid: 37af3df503ec88f4199ad564ba669b8a,
        type: 3}
      propertyPath: m_LocalRotation.x
      value: -0.25218824
      objectReference: {fileID: 0}
    - target: {fileID: 50089787249092573, guid: 37af3df503ec88f4199ad564ba669b8a,
        type: 3}
      propertyPath: m_LocalRotation.y
      value: -0.19770585
      objectReference: {fileID: 0}
    - target: {fileID: 50089787249092573, guid: 37af3df503ec88f4199ad564ba669b8a,
        type: 3}
      propertyPath: m_LocalRotation.z
      value: 0.38989133
      objectReference: {fileID: 0}
    - target: {fileID: 50089787249092573, guid: 37af3df503ec88f4199ad564ba669b8a,
        type: 3}
      propertyPath: m_LocalEulerAnglesHint.x
      value: -16.336
      objectReference: {fileID: 0}
    - target: {fileID: 50089787249092573, guid: 37af3df503ec88f4199ad564ba669b8a,
        type: 3}
      propertyPath: m_LocalEulerAnglesHint.y
      value: -34.101
      objectReference: {fileID: 0}
    - target: {fileID: 50089787249092573, guid: 37af3df503ec88f4199ad564ba669b8a,
        type: 3}
      propertyPath: m_LocalEulerAnglesHint.z
      value: 53.651
      objectReference: {fileID: 0}
    - target: {fileID: 260110890720574077, guid: 37af3df503ec88f4199ad564ba669b8a,
        type: 3}
      propertyPath: m_Layer
      value: 9
      objectReference: {fileID: 0}
    - target: {fileID: 387660854862757064, guid: 37af3df503ec88f4199ad564ba669b8a,
        type: 3}
      propertyPath: m_LocalPosition.x
      value: -0.056649167
      objectReference: {fileID: 0}
    - target: {fileID: 387660854862757064, guid: 37af3df503ec88f4199ad564ba669b8a,
        type: 3}
      propertyPath: m_LocalPosition.y
      value: 0.00000046525383
      objectReference: {fileID: 0}
    - target: {fileID: 387660854862757064, guid: 37af3df503ec88f4199ad564ba669b8a,
        type: 3}
      propertyPath: m_LocalPosition.z
      value: 0.0000003388512
      objectReference: {fileID: 0}
    - target: {fileID: 387660854862757064, guid: 37af3df503ec88f4199ad564ba669b8a,
        type: 3}
      propertyPath: m_LocalRotation.w
      value: 0.9885923
      objectReference: {fileID: 0}
    - target: {fileID: 387660854862757064, guid: 37af3df503ec88f4199ad564ba669b8a,
        type: 3}
      propertyPath: m_LocalRotation.x
      value: 0.0000000120785035
      objectReference: {fileID: 0}
    - target: {fileID: 387660854862757064, guid: 37af3df503ec88f4199ad564ba669b8a,
        type: 3}
      propertyPath: m_LocalRotation.y
      value: 0.00000003814165
      objectReference: {fileID: 0}
    - target: {fileID: 387660854862757064, guid: 37af3df503ec88f4199ad564ba669b8a,
        type: 3}
      propertyPath: m_LocalRotation.z
      value: 0.15061617
      objectReference: {fileID: 0}
    - target: {fileID: 387660854862757064, guid: 37af3df503ec88f4199ad564ba669b8a,
        type: 3}
      propertyPath: m_LocalEulerAnglesHint.z
      value: 17.325
      objectReference: {fileID: 0}
    - target: {fileID: 811182161274915817, guid: 37af3df503ec88f4199ad564ba669b8a,
        type: 3}
      propertyPath: m_RootOrder
      value: 4
      objectReference: {fileID: 0}
    - target: {fileID: 811182161274915817, guid: 37af3df503ec88f4199ad564ba669b8a,
        type: 3}
      propertyPath: m_LocalScale.x
      value: 100
      objectReference: {fileID: 0}
    - target: {fileID: 811182161274915817, guid: 37af3df503ec88f4199ad564ba669b8a,
        type: 3}
      propertyPath: m_LocalScale.y
      value: 100
      objectReference: {fileID: 0}
    - target: {fileID: 811182161274915817, guid: 37af3df503ec88f4199ad564ba669b8a,
        type: 3}
      propertyPath: m_LocalScale.z
      value: 100.00002
      objectReference: {fileID: 0}
    - target: {fileID: 811182161274915817, guid: 37af3df503ec88f4199ad564ba669b8a,
        type: 3}
      propertyPath: m_LocalPosition.x
      value: -42.913754
      objectReference: {fileID: 0}
    - target: {fileID: 811182161274915817, guid: 37af3df503ec88f4199ad564ba669b8a,
        type: 3}
      propertyPath: m_LocalPosition.y
      value: 38.715897
      objectReference: {fileID: 0}
    - target: {fileID: 811182161274915817, guid: 37af3df503ec88f4199ad564ba669b8a,
        type: 3}
      propertyPath: m_LocalPosition.z
      value: 21.195044
      objectReference: {fileID: 0}
    - target: {fileID: 811182161274915817, guid: 37af3df503ec88f4199ad564ba669b8a,
        type: 3}
      propertyPath: m_LocalRotation.w
      value: 0.036940813
      objectReference: {fileID: 0}
    - target: {fileID: 811182161274915817, guid: 37af3df503ec88f4199ad564ba669b8a,
        type: 3}
      propertyPath: m_LocalRotation.x
      value: 0.3988405
      objectReference: {fileID: 0}
    - target: {fileID: 811182161274915817, guid: 37af3df503ec88f4199ad564ba669b8a,
        type: 3}
      propertyPath: m_LocalRotation.y
      value: -0.07988173
      objectReference: {fileID: 0}
    - target: {fileID: 811182161274915817, guid: 37af3df503ec88f4199ad564ba669b8a,
        type: 3}
      propertyPath: m_LocalRotation.z
      value: 0.9127873
      objectReference: {fileID: 0}
    - target: {fileID: 811182161274915817, guid: 37af3df503ec88f4199ad564ba669b8a,
        type: 3}
      propertyPath: m_LocalEulerAnglesHint.x
      value: 10.096001
      objectReference: {fileID: 0}
    - target: {fileID: 811182161274915817, guid: 37af3df503ec88f4199ad564ba669b8a,
        type: 3}
      propertyPath: m_LocalEulerAnglesHint.y
      value: 47.187004
      objectReference: {fileID: 0}
    - target: {fileID: 811182161274915817, guid: 37af3df503ec88f4199ad564ba669b8a,
        type: 3}
      propertyPath: m_LocalEulerAnglesHint.z
      value: 179.78401
      objectReference: {fileID: 0}
    - target: {fileID: 1163000180244374237, guid: 37af3df503ec88f4199ad564ba669b8a,
        type: 3}
      propertyPath: m_Layer
      value: 9
      objectReference: {fileID: 0}
    - target: {fileID: 2513477637072917717, guid: 37af3df503ec88f4199ad564ba669b8a,
        type: 3}
      propertyPath: m_LocalPosition.x
      value: -0.019107804
      objectReference: {fileID: 0}
    - target: {fileID: 2513477637072917717, guid: 37af3df503ec88f4199ad564ba669b8a,
        type: 3}
      propertyPath: m_LocalPosition.y
      value: -0.013919043
      objectReference: {fileID: 0}
    - target: {fileID: 2513477637072917717, guid: 37af3df503ec88f4199ad564ba669b8a,
        type: 3}
      propertyPath: m_LocalPosition.z
      value: -0.13603961
      objectReference: {fileID: 0}
    - target: {fileID: 2513477637072917717, guid: 37af3df503ec88f4199ad564ba669b8a,
        type: 3}
      propertyPath: m_LocalRotation.w
      value: 0.52426887
      objectReference: {fileID: 0}
    - target: {fileID: 2513477637072917717, guid: 37af3df503ec88f4199ad564ba669b8a,
        type: 3}
      propertyPath: m_LocalRotation.x
      value: -0.24008214
      objectReference: {fileID: 0}
    - target: {fileID: 2513477637072917717, guid: 37af3df503ec88f4199ad564ba669b8a,
        type: 3}
      propertyPath: m_LocalRotation.y
      value: -0.19505432
      objectReference: {fileID: 0}
    - target: {fileID: 2513477637072917717, guid: 37af3df503ec88f4199ad564ba669b8a,
        type: 3}
      propertyPath: m_LocalRotation.z
      value: 0.793383
      objectReference: {fileID: 0}
    - target: {fileID: 2513477637072917717, guid: 37af3df503ec88f4199ad564ba669b8a,
        type: 3}
      propertyPath: m_LocalEulerAnglesHint.x
      value: 3.3120003
      objectReference: {fileID: 0}
    - target: {fileID: 2513477637072917717, guid: 37af3df503ec88f4199ad564ba669b8a,
        type: 3}
      propertyPath: m_LocalEulerAnglesHint.y
      value: -35.906002
      objectReference: {fileID: 0}
    - target: {fileID: 2513477637072917717, guid: 37af3df503ec88f4199ad564ba669b8a,
        type: 3}
      propertyPath: m_LocalEulerAnglesHint.z
      value: 112.01301
      objectReference: {fileID: 0}
    - target: {fileID: 2593980722553862112, guid: 37af3df503ec88f4199ad564ba669b8a,
        type: 3}
      propertyPath: m_Layer
      value: 9
      objectReference: {fileID: 0}
    - target: {fileID: 2686019583764107422, guid: 37af3df503ec88f4199ad564ba669b8a,
        type: 3}
      propertyPath: m_Layer
      value: 9
      objectReference: {fileID: 0}
    - target: {fileID: 2721793698321493426, guid: 37af3df503ec88f4199ad564ba669b8a,
        type: 3}
      propertyPath: m_LocalPosition.x
      value: 0.0031032693
      objectReference: {fileID: 0}
    - target: {fileID: 2721793698321493426, guid: 37af3df503ec88f4199ad564ba669b8a,
        type: 3}
      propertyPath: m_LocalPosition.y
      value: -0.07093157
      objectReference: {fileID: 0}
    - target: {fileID: 2721793698321493426, guid: 37af3df503ec88f4199ad564ba669b8a,
        type: 3}
      propertyPath: m_LocalPosition.z
      value: -0.0042058397
      objectReference: {fileID: 0}
    - target: {fileID: 2721793698321493426, guid: 37af3df503ec88f4199ad564ba669b8a,
        type: 3}
      propertyPath: m_LocalRotation.w
      value: 0.9991802
      objectReference: {fileID: 0}
    - target: {fileID: 2721793698321493426, guid: 37af3df503ec88f4199ad564ba669b8a,
        type: 3}
      propertyPath: m_LocalRotation.x
      value: 0.011434031
      objectReference: {fileID: 0}
    - target: {fileID: 2721793698321493426, guid: 37af3df503ec88f4199ad564ba669b8a,
        type: 3}
      propertyPath: m_LocalRotation.y
      value: 0.021697903
      objectReference: {fileID: 0}
    - target: {fileID: 2721793698321493426, guid: 37af3df503ec88f4199ad564ba669b8a,
        type: 3}
      propertyPath: m_LocalRotation.z
      value: -0.03221089
      objectReference: {fileID: 0}
    - target: {fileID: 2721793698321493426, guid: 37af3df503ec88f4199ad564ba669b8a,
        type: 3}
      propertyPath: m_LocalEulerAnglesHint.x
      value: 1.389
      objectReference: {fileID: 0}
    - target: {fileID: 2721793698321493426, guid: 37af3df503ec88f4199ad564ba669b8a,
        type: 3}
      propertyPath: m_LocalEulerAnglesHint.y
      value: 2.444
      objectReference: {fileID: 0}
    - target: {fileID: 2721793698321493426, guid: 37af3df503ec88f4199ad564ba669b8a,
        type: 3}
      propertyPath: m_LocalEulerAnglesHint.z
      value: -3.663
      objectReference: {fileID: 0}
    - target: {fileID: 2726879695289132984, guid: 37af3df503ec88f4199ad564ba669b8a,
        type: 3}
      propertyPath: m_Materials.Array.data[0]
      value: 
      objectReference: {fileID: 2100000, guid: d249e66f0aaa50046929799a0b46e11b, type: 2}
    - target: {fileID: 2859663098612852702, guid: 37af3df503ec88f4199ad564ba669b8a,
        type: 3}
      propertyPath: m_Layer
      value: 9
      objectReference: {fileID: 0}
    - target: {fileID: 3127124778273930812, guid: 37af3df503ec88f4199ad564ba669b8a,
        type: 3}
      propertyPath: m_Layer
      value: 9
      objectReference: {fileID: 0}
    - target: {fileID: 3131553524518719123, guid: 37af3df503ec88f4199ad564ba669b8a,
        type: 3}
      propertyPath: m_Layer
      value: 9
      objectReference: {fileID: 0}
    - target: {fileID: 3374928713257862869, guid: 37af3df503ec88f4199ad564ba669b8a,
        type: 3}
      propertyPath: m_Layer
      value: 9
      objectReference: {fileID: 0}
    - target: {fileID: 3805322923311482561, guid: 37af3df503ec88f4199ad564ba669b8a,
        type: 3}
      propertyPath: m_Name
      value: BraccioShotgun
      objectReference: {fileID: 0}
    - target: {fileID: 3805322923311482561, guid: 37af3df503ec88f4199ad564ba669b8a,
        type: 3}
      propertyPath: m_Layer
      value: 9
      objectReference: {fileID: 0}
    - target: {fileID: 3846127207918807670, guid: 37af3df503ec88f4199ad564ba669b8a,
        type: 3}
      propertyPath: m_Layer
      value: 9
      objectReference: {fileID: 0}
    - target: {fileID: 4015702854393924929, guid: 37af3df503ec88f4199ad564ba669b8a,
        type: 3}
      propertyPath: m_LocalPosition.x
      value: -0.08765291
      objectReference: {fileID: 0}
    - target: {fileID: 4015702854393924929, guid: 37af3df503ec88f4199ad564ba669b8a,
        type: 3}
      propertyPath: m_LocalPosition.y
      value: 0.0000007301569
      objectReference: {fileID: 0}
    - target: {fileID: 4015702854393924929, guid: 37af3df503ec88f4199ad564ba669b8a,
        type: 3}
      propertyPath: m_LocalPosition.z
      value: 0.00000007497147
      objectReference: {fileID: 0}
    - target: {fileID: 4015702854393924929, guid: 37af3df503ec88f4199ad564ba669b8a,
        type: 3}
      propertyPath: m_LocalRotation.w
      value: 0.98979354
      objectReference: {fileID: 0}
    - target: {fileID: 4015702854393924929, guid: 37af3df503ec88f4199ad564ba669b8a,
        type: 3}
      propertyPath: m_LocalRotation.x
      value: -0.000000059604638
      objectReference: {fileID: 0}
    - target: {fileID: 4015702854393924929, guid: 37af3df503ec88f4199ad564ba669b8a,
        type: 3}
      propertyPath: m_LocalRotation.y
      value: -0.00000002235174
      objectReference: {fileID: 0}
    - target: {fileID: 4015702854393924929, guid: 37af3df503ec88f4199ad564ba669b8a,
        type: 3}
      propertyPath: m_LocalRotation.z
      value: 0.14250873
      objectReference: {fileID: 0}
    - target: {fileID: 4015702854393924929, guid: 37af3df503ec88f4199ad564ba669b8a,
        type: 3}
      propertyPath: m_LocalEulerAnglesHint.z
      value: 16.386002
      objectReference: {fileID: 0}
    - target: {fileID: 4093596539757209801, guid: 37af3df503ec88f4199ad564ba669b8a,
        type: 3}
      propertyPath: m_LocalPosition.x
      value: -0.066211335
      objectReference: {fileID: 0}
    - target: {fileID: 4093596539757209801, guid: 37af3df503ec88f4199ad564ba669b8a,
        type: 3}
      propertyPath: m_LocalPosition.y
      value: 0.0000044959015
      objectReference: {fileID: 0}
    - target: {fileID: 4093596539757209801, guid: 37af3df503ec88f4199ad564ba669b8a,
        type: 3}
      propertyPath: m_LocalPosition.z
      value: 0.0000007699137
      objectReference: {fileID: 0}
    - target: {fileID: 4093596539757209801, guid: 37af3df503ec88f4199ad564ba669b8a,
        type: 3}
      propertyPath: m_LocalRotation.w
      value: 0.93186826
      objectReference: {fileID: 0}
    - target: {fileID: 4093596539757209801, guid: 37af3df503ec88f4199ad564ba669b8a,
        type: 3}
      propertyPath: m_LocalRotation.x
      value: -0.00000004147337
      objectReference: {fileID: 0}
    - target: {fileID: 4093596539757209801, guid: 37af3df503ec88f4199ad564ba669b8a,
        type: 3}
      propertyPath: m_LocalRotation.y
      value: -0.00000005505171
      objectReference: {fileID: 0}
    - target: {fileID: 4093596539757209801, guid: 37af3df503ec88f4199ad564ba669b8a,
        type: 3}
      propertyPath: m_LocalRotation.z
      value: 0.36279705
      objectReference: {fileID: 0}
    - target: {fileID: 4093596539757209801, guid: 37af3df503ec88f4199ad564ba669b8a,
        type: 3}
      propertyPath: m_LocalEulerAnglesHint.z
      value: 42.544003
      objectReference: {fileID: 0}
    - target: {fileID: 4099351289390113714, guid: 37af3df503ec88f4199ad564ba669b8a,
        type: 3}
      propertyPath: m_Layer
      value: 9
      objectReference: {fileID: 0}
    - target: {fileID: 4145555562366315353, guid: 37af3df503ec88f4199ad564ba669b8a,
        type: 3}
      propertyPath: m_Layer
      value: 9
      objectReference: {fileID: 0}
    - target: {fileID: 4216341600996491573, guid: 37af3df503ec88f4199ad564ba669b8a,
        type: 3}
      propertyPath: m_LocalPosition.x
      value: -0.17054138
      objectReference: {fileID: 0}
    - target: {fileID: 4216341600996491573, guid: 37af3df503ec88f4199ad564ba669b8a,
        type: 3}
      propertyPath: m_LocalPosition.y
      value: 0.0000037670136
      objectReference: {fileID: 0}
    - target: {fileID: 4216341600996491573, guid: 37af3df503ec88f4199ad564ba669b8a,
        type: 3}
      propertyPath: m_LocalPosition.z
      value: -0.000003695488
      objectReference: {fileID: 0}
    - target: {fileID: 4216341600996491573, guid: 37af3df503ec88f4199ad564ba669b8a,
        type: 3}
      propertyPath: m_LocalRotation.w
      value: 0.9985627
      objectReference: {fileID: 0}
    - target: {fileID: 4216341600996491573, guid: 37af3df503ec88f4199ad564ba669b8a,
        type: 3}
      propertyPath: m_LocalRotation.x
      value: 0.000000022351736
      objectReference: {fileID: 0}
    - target: {fileID: 4216341600996491573, guid: 37af3df503ec88f4199ad564ba669b8a,
        type: 3}
      propertyPath: m_LocalRotation.y
      value: -0.000000029802315
      objectReference: {fileID: 0}
    - target: {fileID: 4216341600996491573, guid: 37af3df503ec88f4199ad564ba669b8a,
        type: 3}
      propertyPath: m_LocalRotation.z
      value: 0.053595927
      objectReference: {fileID: 0}
    - target: {fileID: 4216341600996491573, guid: 37af3df503ec88f4199ad564ba669b8a,
        type: 3}
      propertyPath: m_LocalEulerAnglesHint.z
      value: 6.1450005
      objectReference: {fileID: 0}
    - target: {fileID: 4332092865763450802, guid: 37af3df503ec88f4199ad564ba669b8a,
        type: 3}
      propertyPath: m_LocalPosition.x
      value: 0.0070337206
      objectReference: {fileID: 0}
    - target: {fileID: 4332092865763450802, guid: 37af3df503ec88f4199ad564ba669b8a,
        type: 3}
      propertyPath: m_LocalPosition.y
      value: -0.032021143
      objectReference: {fileID: 0}
    - target: {fileID: 4332092865763450802, guid: 37af3df503ec88f4199ad564ba669b8a,
        type: 3}
      propertyPath: m_LocalPosition.z
      value: 0.13666189
      objectReference: {fileID: 0}
    - target: {fileID: 4332092865763450802, guid: 37af3df503ec88f4199ad564ba669b8a,
        type: 3}
      propertyPath: m_LocalRotation.w
      value: 0.90605766
      objectReference: {fileID: 0}
    - target: {fileID: 4332092865763450802, guid: 37af3df503ec88f4199ad564ba669b8a,
        type: 3}
      propertyPath: m_LocalRotation.x
      value: -0.069323294
      objectReference: {fileID: 0}
    - target: {fileID: 4332092865763450802, guid: 37af3df503ec88f4199ad564ba669b8a,
        type: 3}
      propertyPath: m_LocalRotation.y
      value: -0.41741425
      objectReference: {fileID: 0}
    - target: {fileID: 4332092865763450802, guid: 37af3df503ec88f4199ad564ba669b8a,
        type: 3}
      propertyPath: m_LocalRotation.z
      value: 0.0043817335
      objectReference: {fileID: 0}
    - target: {fileID: 4332092865763450802, guid: 37af3df503ec88f4199ad564ba669b8a,
        type: 3}
      propertyPath: m_LocalEulerAnglesHint.x
      value: -7.005
      objectReference: {fileID: 0}
    - target: {fileID: 4332092865763450802, guid: 37af3df503ec88f4199ad564ba669b8a,
        type: 3}
      propertyPath: m_LocalEulerAnglesHint.y
      value: -49.703003
      objectReference: {fileID: 0}
    - target: {fileID: 4332092865763450802, guid: 37af3df503ec88f4199ad564ba669b8a,
        type: 3}
      propertyPath: m_LocalEulerAnglesHint.z
      value: 3.8020003
      objectReference: {fileID: 0}
    - target: {fileID: 4433619201708824755, guid: 37af3df503ec88f4199ad564ba669b8a,
        type: 3}
      propertyPath: m_Layer
      value: 9
      objectReference: {fileID: 0}
    - target: {fileID: 4480551146513054367, guid: 37af3df503ec88f4199ad564ba669b8a,
        type: 3}
      propertyPath: m_Layer
      value: 9
      objectReference: {fileID: 0}
    - target: {fileID: 4556573458964362980, guid: 37af3df503ec88f4199ad564ba669b8a,
        type: 3}
      propertyPath: m_Layer
      value: 9
      objectReference: {fileID: 0}
    - target: {fileID: 5288833309694175371, guid: 37af3df503ec88f4199ad564ba669b8a,
        type: 3}
      propertyPath: m_Layer
      value: 9
      objectReference: {fileID: 0}
    - target: {fileID: 5520591161544395751, guid: 37af3df503ec88f4199ad564ba669b8a,
        type: 3}
      propertyPath: m_Layer
      value: 9
      objectReference: {fileID: 0}
    - target: {fileID: 5619656588556743299, guid: 37af3df503ec88f4199ad564ba669b8a,
        type: 3}
      propertyPath: m_Layer
      value: 9
      objectReference: {fileID: 0}
    - target: {fileID: 5804137495365229372, guid: 37af3df503ec88f4199ad564ba669b8a,
        type: 3}
      propertyPath: m_LocalPosition.x
      value: -0.475
      objectReference: {fileID: 0}
    - target: {fileID: 5804137495365229372, guid: 37af3df503ec88f4199ad564ba669b8a,
        type: 3}
      propertyPath: m_LocalPosition.y
      value: -0
      objectReference: {fileID: 0}
    - target: {fileID: 5804137495365229372, guid: 37af3df503ec88f4199ad564ba669b8a,
        type: 3}
      propertyPath: m_LocalPosition.z
      value: -0
      objectReference: {fileID: 0}
    - target: {fileID: 6022945328042026414, guid: 37af3df503ec88f4199ad564ba669b8a,
        type: 3}
      propertyPath: m_Layer
      value: 9
      objectReference: {fileID: 0}
    - target: {fileID: 6160895534472018517, guid: 37af3df503ec88f4199ad564ba669b8a,
        type: 3}
      propertyPath: m_Layer
      value: 9
      objectReference: {fileID: 0}
    - target: {fileID: 6265934472089946047, guid: 37af3df503ec88f4199ad564ba669b8a,
        type: 3}
      propertyPath: m_Layer
      value: 9
      objectReference: {fileID: 0}
    - target: {fileID: 6994006426264679559, guid: 37af3df503ec88f4199ad564ba669b8a,
        type: 3}
      propertyPath: m_Layer
      value: 9
      objectReference: {fileID: 0}
    - target: {fileID: 6997821041030492143, guid: 37af3df503ec88f4199ad564ba669b8a,
        type: 3}
      propertyPath: m_Layer
      value: 9
      objectReference: {fileID: 0}
    - target: {fileID: 7124385722519111621, guid: 37af3df503ec88f4199ad564ba669b8a,
        type: 3}
      propertyPath: m_LocalPosition.x
      value: -0.0914188
      objectReference: {fileID: 0}
    - target: {fileID: 7124385722519111621, guid: 37af3df503ec88f4199ad564ba669b8a,
        type: 3}
      propertyPath: m_LocalPosition.y
      value: -0.00000022983295
      objectReference: {fileID: 0}
    - target: {fileID: 7124385722519111621, guid: 37af3df503ec88f4199ad564ba669b8a,
        type: 3}
      propertyPath: m_LocalPosition.z
      value: -0.0050257333
      objectReference: {fileID: 0}
    - target: {fileID: 7124385722519111621, guid: 37af3df503ec88f4199ad564ba669b8a,
        type: 3}
      propertyPath: m_LocalRotation.w
      value: 0.73878527
      objectReference: {fileID: 0}
    - target: {fileID: 7124385722519111621, guid: 37af3df503ec88f4199ad564ba669b8a,
        type: 3}
      propertyPath: m_LocalRotation.x
      value: -0.1845176
      objectReference: {fileID: 0}
    - target: {fileID: 7124385722519111621, guid: 37af3df503ec88f4199ad564ba669b8a,
        type: 3}
      propertyPath: m_LocalRotation.y
      value: -0.26806885
      objectReference: {fileID: 0}
    - target: {fileID: 7124385722519111621, guid: 37af3df503ec88f4199ad564ba669b8a,
        type: 3}
      propertyPath: m_LocalRotation.z
      value: 0.5901599
      objectReference: {fileID: 0}
    - target: {fileID: 7124385722519111621, guid: 37af3df503ec88f4199ad564ba669b8a,
        type: 3}
      propertyPath: m_LocalEulerAnglesHint.x
      value: 2.509
      objectReference: {fileID: 0}
    - target: {fileID: 7124385722519111621, guid: 37af3df503ec88f4199ad564ba669b8a,
        type: 3}
      propertyPath: m_LocalEulerAnglesHint.y
      value: -37.913002
      objectReference: {fileID: 0}
    - target: {fileID: 7124385722519111621, guid: 37af3df503ec88f4199ad564ba669b8a,
        type: 3}
      propertyPath: m_LocalEulerAnglesHint.z
      value: 76.37601
      objectReference: {fileID: 0}
    - target: {fileID: 8105132039524444749, guid: 37af3df503ec88f4199ad564ba669b8a,
        type: 3}
      propertyPath: m_Layer
      value: 9
      objectReference: {fileID: 0}
    - target: {fileID: 8246866816027538312, guid: 37af3df503ec88f4199ad564ba669b8a,
        type: 3}
      propertyPath: m_LocalPosition.x
      value: -0.074978806
      objectReference: {fileID: 0}
    - target: {fileID: 8246866816027538312, guid: 37af3df503ec88f4199ad564ba669b8a,
        type: 3}
      propertyPath: m_LocalPosition.y
      value: 0.000003296882
      objectReference: {fileID: 0}
    - target: {fileID: 8246866816027538312, guid: 37af3df503ec88f4199ad564ba669b8a,
        type: 3}
      propertyPath: m_LocalPosition.z
      value: 0.0000016391277
      objectReference: {fileID: 0}
    - target: {fileID: 8246866816027538312, guid: 37af3df503ec88f4199ad564ba669b8a,
        type: 3}
      propertyPath: m_LocalRotation.w
      value: 0.99009454
      objectReference: {fileID: 0}
    - target: {fileID: 8246866816027538312, guid: 37af3df503ec88f4199ad564ba669b8a,
        type: 3}
      propertyPath: m_LocalRotation.x
      value: 0.00000005960463
      objectReference: {fileID: 0}
    - target: {fileID: 8246866816027538312, guid: 37af3df503ec88f4199ad564ba669b8a,
        type: 3}
      propertyPath: m_LocalRotation.y
      value: 0.00000005960463
      objectReference: {fileID: 0}
    - target: {fileID: 8246866816027538312, guid: 37af3df503ec88f4199ad564ba669b8a,
        type: 3}
      propertyPath: m_LocalRotation.z
      value: 0.14040211
      objectReference: {fileID: 0}
    - target: {fileID: 8246866816027538312, guid: 37af3df503ec88f4199ad564ba669b8a,
        type: 3}
      propertyPath: m_LocalEulerAnglesHint.z
      value: 16.142
      objectReference: {fileID: 0}
    - target: {fileID: 8407992214644107435, guid: 37af3df503ec88f4199ad564ba669b8a,
        type: 3}
      propertyPath: m_Layer
      value: 9
      objectReference: {fileID: 0}
    - target: {fileID: 8552548130137430169, guid: 37af3df503ec88f4199ad564ba669b8a,
        type: 3}
      propertyPath: m_Layer
      value: 9
      objectReference: {fileID: 0}
    - target: {fileID: 8565817886417942423, guid: 37af3df503ec88f4199ad564ba669b8a,
        type: 3}
      propertyPath: m_Layer
      value: 9
      objectReference: {fileID: 0}
    - target: {fileID: 9110762686966234571, guid: 37af3df503ec88f4199ad564ba669b8a,
        type: 3}
      propertyPath: m_LocalPosition.x
      value: -0.06593107
      objectReference: {fileID: 0}
    - target: {fileID: 9110762686966234571, guid: 37af3df503ec88f4199ad564ba669b8a,
        type: 3}
      propertyPath: m_LocalPosition.y
      value: -0.000001013279
      objectReference: {fileID: 0}
    - target: {fileID: 9110762686966234571, guid: 37af3df503ec88f4199ad564ba669b8a,
        type: 3}
      propertyPath: m_LocalPosition.z
      value: -0.096208334
      objectReference: {fileID: 0}
    - target: {fileID: 9110762686966234571, guid: 37af3df503ec88f4199ad564ba669b8a,
        type: 3}
      propertyPath: m_LocalRotation.w
      value: 0.53250283
      objectReference: {fileID: 0}
    - target: {fileID: 9110762686966234571, guid: 37af3df503ec88f4199ad564ba669b8a,
        type: 3}
      propertyPath: m_LocalRotation.x
      value: -0.18046282
      objectReference: {fileID: 0}
    - target: {fileID: 9110762686966234571, guid: 37af3df503ec88f4199ad564ba669b8a,
        type: 3}
      propertyPath: m_LocalRotation.y
      value: -0.19302982
      objectReference: {fileID: 0}
    - target: {fileID: 9110762686966234571, guid: 37af3df503ec88f4199ad564ba669b8a,
        type: 3}
      propertyPath: m_LocalRotation.z
      value: 0.8041228
      objectReference: {fileID: 0}
    - target: {fileID: 9110762686966234571, guid: 37af3df503ec88f4199ad564ba669b8a,
        type: 3}
      propertyPath: m_LocalEulerAnglesHint.x
      value: 6.7910004
      objectReference: {fileID: 0}
    - target: {fileID: 9110762686966234571, guid: 37af3df503ec88f4199ad564ba669b8a,
        type: 3}
      propertyPath: m_LocalEulerAnglesHint.y
      value: -29.954
      objectReference: {fileID: 0}
    - target: {fileID: 9110762686966234571, guid: 37af3df503ec88f4199ad564ba669b8a,
        type: 3}
      propertyPath: m_LocalEulerAnglesHint.z
      value: 111.15501
      objectReference: {fileID: 0}
    - target: {fileID: 9124087244690958699, guid: 37af3df503ec88f4199ad564ba669b8a,
        type: 3}
      propertyPath: m_Layer
      value: 9
      objectReference: {fileID: 0}
    - target: {fileID: 9191139971334080501, guid: 37af3df503ec88f4199ad564ba669b8a,
        type: 3}
      propertyPath: m_Layer
      value: 9
      objectReference: {fileID: 0}
    m_RemovedComponents: []
  m_SourcePrefab: {fileID: 100100000, guid: 37af3df503ec88f4199ad564ba669b8a, type: 3}
--- !u!1001 &7786933471054498918
PrefabInstance:
  m_ObjectHideFlags: 0
  serializedVersion: 2
  m_Modification:
    m_TransformParent: {fileID: 2864820959198554369}
    m_Modifications:
    - target: {fileID: -8679921383154817045, guid: c57fe532dc9ea9a4ba4794f524bf81a2,
        type: 3}
      propertyPath: m_RootOrder
      value: 0
      objectReference: {fileID: 0}
    - target: {fileID: -8679921383154817045, guid: c57fe532dc9ea9a4ba4794f524bf81a2,
        type: 3}
      propertyPath: m_LocalPosition.x
      value: 0.161
      objectReference: {fileID: 0}
    - target: {fileID: -8679921383154817045, guid: c57fe532dc9ea9a4ba4794f524bf81a2,
        type: 3}
      propertyPath: m_LocalPosition.y
      value: -0.693
      objectReference: {fileID: 0}
    - target: {fileID: -8679921383154817045, guid: c57fe532dc9ea9a4ba4794f524bf81a2,
        type: 3}
      propertyPath: m_LocalPosition.z
      value: -0.316
      objectReference: {fileID: 0}
    - target: {fileID: -8679921383154817045, guid: c57fe532dc9ea9a4ba4794f524bf81a2,
        type: 3}
      propertyPath: m_LocalRotation.w
      value: 0.9967224
      objectReference: {fileID: 0}
    - target: {fileID: -8679921383154817045, guid: c57fe532dc9ea9a4ba4794f524bf81a2,
        type: 3}
      propertyPath: m_LocalRotation.x
      value: -0.06515071
      objectReference: {fileID: 0}
    - target: {fileID: -8679921383154817045, guid: c57fe532dc9ea9a4ba4794f524bf81a2,
        type: 3}
      propertyPath: m_LocalRotation.y
      value: -0.047706842
      objectReference: {fileID: 0}
    - target: {fileID: -8679921383154817045, guid: c57fe532dc9ea9a4ba4794f524bf81a2,
        type: 3}
      propertyPath: m_LocalRotation.z
      value: -0.0048956037
      objectReference: {fileID: 0}
    - target: {fileID: -8679921383154817045, guid: c57fe532dc9ea9a4ba4794f524bf81a2,
        type: 3}
      propertyPath: m_LocalEulerAnglesHint.x
      value: -7.4890003
      objectReference: {fileID: 0}
    - target: {fileID: -8679921383154817045, guid: c57fe532dc9ea9a4ba4794f524bf81a2,
        type: 3}
      propertyPath: m_LocalEulerAnglesHint.y
      value: -5.4670005
      objectReference: {fileID: 0}
    - target: {fileID: -8679921383154817045, guid: c57fe532dc9ea9a4ba4794f524bf81a2,
        type: 3}
      propertyPath: m_LocalEulerAnglesHint.z
      value: -0.20500001
      objectReference: {fileID: 0}
    - target: {fileID: -6295847236071286009, guid: c57fe532dc9ea9a4ba4794f524bf81a2,
        type: 3}
      propertyPath: m_Materials.Array.data[0]
      value: 
      objectReference: {fileID: 2100000, guid: 5a28e2593e67f1a4aa382a8000577ee0, type: 2}
    - target: {fileID: -5339721937580742412, guid: c57fe532dc9ea9a4ba4794f524bf81a2,
        type: 3}
      propertyPath: m_Layer
      value: 9
      objectReference: {fileID: 0}
    - target: {fileID: -4447753225574099820, guid: c57fe532dc9ea9a4ba4794f524bf81a2,
        type: 3}
      propertyPath: m_Layer
      value: 9
      objectReference: {fileID: 0}
    - target: {fileID: -3167719181686795454, guid: c57fe532dc9ea9a4ba4794f524bf81a2,
        type: 3}
      propertyPath: m_Materials.Array.data[0]
      value: 
      objectReference: {fileID: 2100000, guid: 5a28e2593e67f1a4aa382a8000577ee0, type: 2}
    - target: {fileID: 919132149155446097, guid: c57fe532dc9ea9a4ba4794f524bf81a2,
        type: 3}
      propertyPath: m_Name
      value: Shotgun_game
      objectReference: {fileID: 0}
    - target: {fileID: 919132149155446097, guid: c57fe532dc9ea9a4ba4794f524bf81a2,
        type: 3}
      propertyPath: m_Layer
      value: 9
      objectReference: {fileID: 0}
    m_RemovedComponents: []
  m_SourcePrefab: {fileID: 100100000, guid: c57fe532dc9ea9a4ba4794f524bf81a2, type: 3}
--- !u!4 &7753518235482385293 stripped
Transform:
  m_CorrespondingSourceObject: {fileID: -8679921383154817045, guid: c57fe532dc9ea9a4ba4794f524bf81a2,
    type: 3}
  m_PrefabInstance: {fileID: 7786933471054498918}
  m_PrefabAsset: {fileID: 0}
