%YAML 1.1
%TAG !u! tag:unity3d.com,2011:
--- !u!114 &11400000
MonoBehaviour:
  m_ObjectHideFlags: 0
  m_CorrespondingSourceObject: {fileID: 0}
  m_PrefabInstance: {fileID: 0}
  m_PrefabAsset: {fileID: 0}
  m_GameObject: {fileID: 0}
  m_Enabled: 1
  m_EditorHideFlags: 0
  m_Script: {fileID: 11500000, guid: e1e50433d5b43fe419d9acad47b33375, type: 3}
  m_Name: EnemyBurst
  m_EditorClassIdentifier: 
  Ammo: 0
  StartingDamage: 0
  Damage: 2
  FirstProjectileDamage: 2
  Weight: 0
  Range: 0
  RangeDmgReduction: 0
  RecoilKnockBack: 0
  ShootingForce: 95
